{
  "API_KEYS":{
    "KEY_IN_USE": "sk_test_525bcb07289d082d650c0cfb65a10105ea25a009",
    "TEST_SECRET_KEY": "sk_test_525bcb07289d082d650c0cfb65a10105ea25a009",
    "TEST_PUBLIC_KEY": "pk_test_2b889a06308101aeaf9796a642b987c55a2cf403",
    "LIVE_SECRET_KEY": "sk_live_xxxxxxxxxxxxxxxxxxxxxxxxxxxxx",
    "LIVE_PUBLIC_KEY": "pk_live_xxxxxxxxxxxxxxxxxxxxxxxxxxxxx"
  }
}